%TF.GenerationSoftware,KiCad,Pcbnew,(6.0.4-0)*%
%TF.CreationDate,2022-04-06T09:42:46+03:00*%
%TF.ProjectId,mosfet-board,6d6f7366-6574-42d6-926f-6172642e6b69,rev?*%
%TF.SameCoordinates,Original*%
%TF.FileFunction,Profile,NP*%
%FSLAX46Y46*%
G04 Gerber Fmt 4.6, Leading zero omitted, Abs format (unit mm)*
G04 Created by KiCad (PCBNEW (6.0.4-0)) date 2022-04-06 09:42:46*
%MOMM*%
%LPD*%
G01*
G04 APERTURE LIST*
%TA.AperFunction,Profile*%
%ADD10C,0.100000*%
%TD*%
G04 APERTURE END LIST*
D10*
X94014214Y-42014205D02*
G75*
G03*
X92014214Y-44014219I14J-2000014D01*
G01*
X94019230Y-78990821D02*
X148985786Y-78985786D01*
X150985786Y-76985786D02*
X150985786Y-44014214D01*
X94014214Y-42014219D02*
X148985786Y-42014214D01*
X150985786Y-44014214D02*
G75*
G03*
X148985786Y-42014214I-2000000J0D01*
G01*
X92019281Y-76976607D02*
X92014214Y-44014219D01*
X148985786Y-78985786D02*
G75*
G03*
X150985786Y-76985786I0J2000000D01*
G01*
X92019281Y-76976607D02*
G75*
G03*
X94019230Y-78990821I1999949J-14214D01*
G01*
M02*
